*** Darwin 17x9 ***
Turn = 0.
  012345678
0 .........
1 .........
2 .........
3 ........r
4 ......h..
5 ..f.....t
6 .........
7 .........
8 .........
9 .........
0 .........
1 .........
2 .........
3 .......t.
4 .........
5 ....t....
6 .........

Turn = 6.
  012345678
0 .........
1 .........
2 .........
3 .........
4 ......r..
5 ..f..r...
6 .........
7 .........
8 .........
9 .........
0 ......h..
1 .........
2 .........
3 .......t.
4 .........
5 ....t....
6 .........

*** Darwin 18x10 ***
Turn = 0.
  0123456789
0 ..........
1 .........f
2 ..........
3 .r........
4 ..........
5 ..........
6 ..........
7 ..........
8 ..........
9 ..........
0 .......t..
1 ..........
2 ..........
3 .....f....
4 .......r..
5 ......t...
6 ..........
7 ..........

Turn = 5.
  0123456789
0 ..........
1 .........f
2 ..........
3 ..........
4 ..........
5 ..........
6 ..........
7 ..........
8 .r........
9 ..........
0 .......t..
1 ..........
2 ..........
3 .....f....
4 ..........
5 ......t...
6 .........r
7 ..........

*** Darwin 20x13 ***
Turn = 0.
  0123456789012
0 .............
1 ..t..........
2 .............
3 .............
4 .............
5 .............
6 ....r........
7 ....t........
8 .............
9 .............
0 .............
1 .............
2 .............
3 .............
4 .............
5 .............
6 .............
7 .............
8 .............
9 .............

*** Darwin 6x12 ***
Turn = 0.
  012345678901
0 ............
1 .......t.f..
2 ............
3 ....t.t...r.
4 ............
5 ............

Turn = 2.
  012345678901
0 ............
1 .......t.f..
2 ............
3 ....t.t.....
4 ............
5 ..........r.

*** Darwin 23x4 ***
Turn = 0.
  0123
0 .r..
1 ....
2 .f..
3 ....
4 ....
5 ....
6 ....
7 ....
8 ....
9 .h..
0 ....
1 ..f.
2 ..r.
3 ....
4 ....
5 ...r
6 h...
7 ....
8 ....
9 ....
0 .f..
1 ....
2 ....

*** Darwin 10x4 ***
Turn = 0.
  0123
0 r...
1 ....
2 .r..
3 ....
4 ....
5 ....
6 t.h.
7 ....
8 r.t.
9 t...

Turn = 6.
  0123
0 ....
1 ....
2 ....
3 ....
4 r...
5 rr..
6 ....
7 rr..
8 ..t.
9 t...

*** Darwin 2x21 ***
Turn = 0.
  012345678901234567890
0 ....................f
1 .h.f....t............

Turn = 2.
  012345678901234567890
0 ....................f
1 h..f....t............

*** Darwin 4x6 ***
Turn = 0.
  012345
0 ......
1 ...r..
2 ......
3 ......

*** Darwin 3x12 ***
Turn = 0.
  012345678901
0 ....f....t..
1 .....tr.....
2 th....r...f.

Turn = 3.
  012345678901
0 .h..f....t..
1 .....tt.....
2 t........rf.

*** Darwin 11x22 ***
Turn = 0.
  0123456789012345678901
0 ......................
1 .r...............r....
2 ......f...............
3 .......t...........r..
4 ......................
5 .....h..........t.....
6 ......................
7 ......................
8 ......................
9 ......................
0 ......................

*** Darwin 8x25 ***
Turn = 0.
  0123456789012345678901234
0 .........................
1 h........................
2 .........................
3 .........................
4 ................h........
5 .................t.......
6 ......f..................
7 .........................

Turn = 5.
  0123456789012345678901234
0 .........................
1 .....h...................
2 .........................
3 .........................
4 ...........h.............
5 .................t.......
6 ......f..................
7 .........................

*** Darwin 22x1 ***
Turn = 0.
  0
0 .
1 .
2 .
3 .
4 .
5 .
6 h
7 .
8 f
9 .
0 .
1 .
2 .
3 t
4 .
5 h
6 r
7 .
8 .
9 .
0 .
1 .

Turn = 2.
  0
0 .
1 .
2 .
3 .
4 .
5 .
6 h
7 .
8 f
9 .
0 .
1 .
2 .
3 t
4 .
5 r
6 r
7 .
8 .
9 .
0 .
1 .

*** Darwin 9x8 ***
Turn = 0.
  01234567
0 ........
1 .r......
2 ....f...
3 .h......
4 .....t..
5 ........
6 ...f....
7 ........
8 ........

*** Darwin 19x21 ***
Turn = 0.
  012345678901234567890
0 .....................
1 .....................
2 .....................
3 .....................
4 .....................
5 .....................
6 .....................
7 .....................
8 .....................
9 .....................
0 .....................
1 .....................
2 .....................
3 f....................
4 ................r.r..
5 .....................
6 .....................
7 .......t.............
8 ..t..................

*** Darwin 21x9 ***
Turn = 0.
  012345678
0 .........
1 .........
2 .........
3 .........
4 .........
5 .........
6 .........
7 .........
8 .........
9 .........
0 .........
1 .........
2 .........
3 .........
4 .........
5 .........
6 .........
7 .........
8 .........
9 .........
0 r........

*** Darwin 24x5 ***
Turn = 0.
  01234
0 .....
1 .....
2 ..f..
3 .....
4 .....
5 .....
6 .....
7 .....
8 .....
9 .....
0 .....
1 .....
2 .....
3 .....
4 .....
5 .....
6 .....
7 .....
8 .....
9 .....
0 .....
1 .....
2 .....
3 ...t.

Turn = 4.
  01234
0 .....
1 .....
2 ..f..
3 .....
4 .....
5 .....
6 .....
7 .....
8 .....
9 .....
0 .....
1 .....
2 .....
3 .....
4 .....
5 .....
6 .....
7 .....
8 .....
9 .....
0 .....
1 .....
2 .....
3 ...t.

*** Darwin 25x3 ***
Turn = 0.
  012
0 ...
1 ...
2 ...
3 ...
4 ...
5 ...
6 ...
7 ...
8 ...
9 ...
0 ...
1 .rt
2 ...
3 ...
4 ...
5 r..
6 ...
7 ...
8 ...
9 ...
0 ...
1 ...
2 ...
3 ...
4 ...

Turn = 3.
  012
0 ...
1 ...
2 ...
3 ...
4 ...
5 ...
6 ...
7 ...
8 ...
9 ...
0 ...
1 ..t
2 r..
3 r..
4 ...
5 ...
6 ...
7 ...
8 ...
9 ...
0 ...
1 ...
2 ...
3 ...
4 ...

Turn = 6.
  012
0 ...
1 ...
2 ...
3 ...
4 ...
5 ...
6 ...
7 ...
8 ...
9 ...
0 ...
1 r.t
2 ...
3 ..r
4 ...
5 ...
6 ...
7 ...
8 ...
9 ...
0 ...
1 ...
2 ...
3 ...
4 ...

*** Darwin 14x22 ***
Turn = 0.
  0123456789012345678901
0 ......................
1 ......................
2 ......................
3 ......................
4 ......................
5 ......................
6 ......................
7 ....h.................
8 ......................
9 ......................
0 ......................
1 ......................
2 ......................
3 ......................

*** Darwin 20x11 ***
Turn = 0.
  01234567890
0 ...........
1 ...........
2 .........f.
3 ..t........
4 ...........
5 ........t..
6 ...........
7 ...........
8 ........rh.
9 r..........
0 ...........
1 ...........
2 ...........
3 ...........
4 ..........h
5 ..........h
6 ........r..
7 ...........
8 ...........
9 ...........

*** Darwin 15x17 ***
Turn = 0.
  01234567890123456
0 .......t.........
1 .................
2 .................
3 ...............h.
4 ............t....
5 .......h.........
6 .................
7 .................
8 .................
9 .................
0 ...........t.....
1 .................
2 .................
3 .................
4 .................

*** Darwin 2x6 ***
Turn = 0.
  012345
0 ......
1 .f....

*** Darwin 2x11 ***
Turn = 0.
  01234567890
0 r..r...h.h.
1 t..hf....f.

Turn = 1.
  01234567890
0 t..r...h..h
1 t..rf....f.

Turn = 2.
  01234567890
0 t..r...h..h
1 t..rr....f.

Turn = 3.
  01234567890
0 t.r.r..h..h
1 t..r.....f.

Turn = 4.
  01234567890
0 tr..r..h..h
1 t..r.....f.

Turn = 5.
  01234567890
0 rr...r.h..h
1 t...r....f.

Turn = 6.
  01234567890
0 tr....rh..h
1 t....r...f.

Turn = 7.
  01234567890
0 tr....rr..h
1 t.....r..f.

Turn = 8.
  01234567890
0 t.r...rr..h
1 t......r.f.

Turn = 9.
  01234567890
0 t..r...r..h
1 t.....r.rf.

*** Darwin 22x17 ***
Turn = 0.
  01234567890123456
0 .................
1 ...............h.
2 .............f...
3 .........h.......
4 .................
5 r................
6 .f...............
7 .................
8 .................
9 .................
0 h..r.............
1 .................
2 .................
3 .................
4 .................
5 .................
6 .................
7 .................
8 .................
9 ..........t....h.
0 .................
1 .................

Turn = 3.
  01234567890123456
0 ...............h.
1 .................
2 .............f...
3 r.....h..........
4 .................
5 .................
6 .f...............
7 h..r.............
8 .................
9 .................
0 .................
1 .................
2 .................
3 .................
4 .................
5 .................
6 .................
7 .................
8 .................
9 ..........t......
0 .................
1 ...............h.

*** Darwin 3x21 ***
Turn = 0.
  012345678901234567890
0 ................hr..t
1 ................r....
2 .....................

Turn = 7.
  012345678901234567890
0 .........hr.........t
1 .....................
2 ....................r

*** Darwin 15x18 ***
Turn = 0.
  012345678901234567
0 ................h.
1 ............h.....
2 ..................
3 .................h
4 .................r
5 ...h..............
6 ...........t...f..
7 ..................
8 ..................
9 ................t.
0 ................f.
1 ..................
2 ..................
3 ..................
4 ..................

Turn = 2.
  012345678901234567
0 ................h.
1 ..............h..h
2 ..................
3 ..................
4 ..................
5 .....h............
6 ...........t...f.r
7 ..................
8 ..................
9 ................t.
0 ................f.
1 ..................
2 ..................
3 ..................
4 ..................

Turn = 4.
  012345678901234567
0 ................hh
1 ................h.
2 ..................
3 ..................
4 ..................
5 .......h..........
6 ...........t...f..
7 ..................
8 .................r
9 ................t.
0 ................t.
1 ..................
2 ..................
3 ..................
4 ..................

Turn = 6.
  012345678901234567
0 ................hh
1 .................h
2 ..................
3 ..................
4 ..................
5 .........h........
6 ...........t...f..
7 ..................
8 ..................
9 ................tt
0 ................t.
1 ..................
2 ..................
3 ..................
4 ..................
