20

71 50
16
t 35 46 s
t 23 49 s
r 5 7 s
f 63 5 w
h 12 14 w
f 8 39 e
h 68 20 s
r 65 36 s
t 36 22 s
r 33 21 e
f 61 31 n
f 40 14 s
t 66 5 s
t 31 7 s
r 37 36 n
t 69 46 e
20 34

84 46
3
t 49 36 e
h 78 42 s
t 14 31 e
163 18

80 17
18
t 20 6 s
t 54 8 e
r 5 15 e
t 21 7 w
f 18 1 e
h 46 15 s
t 16 4 w
r 0 3 n
h 43 2 w
t 21 3 e
r 0 16 e
f 35 7 e
f 49 0 s
t 3 0 e
t 39 2 w
r 2 8 s
t 8 15 s
f 57 6 e
110 27

54 66
6
t 10 29 w
r 13 42 n
t 34 11 s
h 50 10 e
r 26 45 w
t 22 64 w
198 103

43 58
1
t 27 28 w
29 121

73 20
3
r 15 15 e
t 44 11 s
f 34 5 n
189 121

83 67
13
h 12 60 s
f 6 13 e
f 9 42 w
f 54 0 s
f 61 54 s
f 56 26 n
r 2 62 e
r 16 37 w
f 37 64 s
f 11 15 s
h 24 12 w
f 79 53 s
t 25 64 e
167 19

27 49
1
r 3 16 n
186 63

86 66
3
r 11 48 e
t 20 31 n
f 82 30 s
151 147

18 51
17
h 17 45 e
f 12 13 w
t 12 26 e
r 17 47 s
f 9 4 n
h 11 27 n
h 2 43 w
r 3 40 n
h 16 27 e
f 12 29 s
f 7 46 n
t 2 24 s
t 1 7 w
h 13 28 n
f 3 48 w
h 14 23 e
t 8 45 s
148 170

48 58
3
t 22 34 e
r 3 41 w
h 29 57 e
18 100

8 39
15
f 0 24 w
t 1 9 e
f 7 32 e
f 3 6 s
t 0 25 e
r 1 36 n
f 5 19 s
f 2 9 w
h 7 27 n
f 4 33 s
h 6 8 e
r 6 12 n
t 0 8 e
h 5 4 w
h 7 27 n
114 34

34 61
19
f 28 17 w
r 27 60 e
r 27 38 n
f 11 16 s
r 23 52 s
f 28 55 w
t 32 0 w
f 30 29 e
t 21 44 s
f 9 54 s
t 11 50 n
r 26 41 w
r 19 1 w
r 30 1 s
t 31 24 s
f 33 51 n
r 7 33 e
f 10 59 w
f 27 1 n
172 141

26 21
1
h 11 12 w
108 144

86 53
10
t 65 28 e
r 9 39 w
t 55 22 e
h 27 6 e
f 26 49 s
h 79 40 w
r 67 39 n
f 39 38 e
f 81 7 e
r 28 42 w
5 31

89 69
14
h 86 63 n
f 18 51 s
h 34 49 w
r 75 45 s
h 35 53 e
t 49 58 n
h 35 59 e
t 43 3 s
r 72 32 e
t 70 33 w
r 87 59 e
t 30 31 w
t 86 11 e
f 8 61 e
63 64

45 45
16
r 7 1 e
h 7 21 n
r 11 23 s
h 30 31 e
r 9 13 s
h 44 12 s
t 32 11 e
f 7 24 w
h 1 36 n
h 18 3 e
t 28 12 n
h 29 34 n
h 15 35 s
f 30 37 e
t 14 10 w
t 6 12 e
90 169

45 93
15
r 3 81 n
h 26 66 n
f 11 78 e
h 24 47 e
f 11 24 w
f 14 4 s
r 41 55 e
h 4 6 w
t 8 73 n
r 34 11 s
t 27 70 w
t 20 63 e
t 42 6 n
h 30 21 n
r 32 34 w
83 102

78 91
18
h 72 40 n
f 34 46 n
r 39 45 s
t 0 46 e
t 27 86 w
h 58 78 e
r 57 50 e
h 63 1 w
h 66 29 s
f 47 11 n
r 51 54 e
f 47 1 n
f 34 25 n
f 10 90 w
h 11 8 n
r 72 47 w
t 38 86 s
r 5 67 n
150 154

69 90
12
t 6 82 s
r 17 34 n
r 16 43 n
h 5 26 e
t 29 14 w
h 23 39 e
h 48 43 n
r 66 54 n
h 50 59 e
r 25 30 n
r 19 19 n
t 35 37 w
85 98
